{
  "users": [
    {
      "id": 0,
      "isActive": true,
      "balance": "2165.16",
      "avatar": "https://images.unsplash.com/profile-1493072774144-13eaccd59170?dpr=2&auto=format&fit=crop&w=64&h=64&q=60&crop=faces&bg=fff",
      "birthday": 494882884,
      "accessLevel": "guest",
      "firstName": "Keisha",
      "lastName": "Cook",
      "company": "PULZE",
      "email": "keisha.cook@pulze.biz",
      "phone": "+7 (865) 514-3658",
      "address": "696 Debevoise Avenue, Veguita, California, 8186",
      "about": "Nostrud ea enim officia mollit exercitation cupidatat. Ut eiusmod labore deserunt occaecat proident qui. Consequat laboris deserunt et sit occaecat. Reprehenderit minim magna amet reprehenderit qui nostrud ad cupidatat exercitation dolore magna magna nostrud enim. Non qui laborum nostrud ea enim occaecat. Deserunt consectetur cupidatat occaecat culpa nisi veniam laboris et sint velit ex.",
      "tags": [
        "dolor",
        "ipsum",
        "est",
        "labore"
      ]
    },
    {
      "id": 1,
      "isActive": false,
      "balance": "3681.23",
      "avatar": "https://images.unsplash.com/profile-1518394892649-55e8048d18a0?dpr=2&auto=format&fit=crop&w=64&h=64&q=60&crop=faces&bg=fff",
      "birthday": 577405113,
      "accessLevel": "user",
      "firstName": "Kelley",
      "lastName": "Cotton",
      "company": "ISOSTREAM",
      "email": "kelley.cotton@isostream.io",
      "phone": "+1 (866) 530-2407",
      "address": "555 Powell Street, Wawona, Wisconsin, 9655",
      "about": "Duis amet Lorem enim laborum eiusmod est occaecat est eu adipisicing commodo irure officia fugiat. Incididunt reprehenderit consequat aliquip sint voluptate in exercitation ex adipisicing amet nisi exercitation laboris. Ad laborum labore anim commodo. Aliqua laborum ipsum enim adipisicing dolor ea enim. Ad exercitation enim nulla eu ut veniam eu anim. Amet proident ut duis et esse eiusmod.",
      "tags": [
        "excepteur",
        "et"
      ]
    },
    {
      "id": 2,
      "isActive": false,
      "balance": "2859.30",
      "avatar": "https://images.unsplash.com/profile-1511631571398-d902b9c193c4?dpr=2&auto=format&fit=crop&w=64&h=64&q=60&crop=faces&bg=fff",
      "birthday": 626277762,
      "accessLevel": "user",
      "firstName": "Nolan",
      "lastName": "Price",
      "company": "TRASOLA",
      "email": "nolan.price@trasola.us",
      "phone": "+1 (936) 513-3194",
      "address": "666 Quincy Street, Temperanceville, Massachusetts, 104",
      "about": "Ipsum enim labore ut adipisicing laboris consequat veniam labore. Eiusmod quis deserunt officia culpa eiusmod Lorem ea. Tempor commodo veniam exercitation sint officia est sint ut exercitation minim consequat labore.",
      "tags": [
        "nulla",
        "irure",
        "amet"
      ]
    },
    {
      "id": 3,
      "isActive": true,
      "balance": "1114.20",
      "avatar": "https://images.unsplash.com/profile-fb-1477664262-b3d4a80d1d76.jpg?dpr=2&auto=format&fit=crop&w=64&h=64&q=60&crop=faces&bg=fff",
      "birthday": 569515561,
      "accessLevel": "admin",
      "firstName": "Nikki",
      "lastName": "Holland",
      "company": "GINK",
      "email": "nikki.holland@gink.ca",
      "phone": "+3 (816) 448-3313",
      "address": "344 Hanover Place, Longbranch, Maine, 5433",
      "about": "Id sunt officia cillum nostrud ipsum sint ad sint sit amet fugiat. Laboris adipisicing occaecat tempor eu reprehenderit officia reprehenderit deserunt laboris minim veniam dolore excepteur consequat. Laborum aliqua ipsum irure anim do sunt non mollit amet nostrud consectetur pariatur nostrud. Non sint consectetur consectetur anim tempor ea dolor eiusmod velit cupidatat. Duis ea adipisicing commodo mollit nostrud velit excepteur et elit sunt proident.",
      "tags": [
        "cupidatat",
        "amet",
        "voluptate",
        "do"
      ]
    },
    {
      "id": 4,
      "isActive": true,
      "balance": "2226.51",
      "avatar": "https://images.unsplash.com/profile-1506982656457-ca11ba42d019?dpr=2&auto=format&fit=crop&w=64&h=64&q=60&crop=faces&bg=fff",
      "birthday": 243783937,
      "accessLevel": "guest",
      "firstName": "Blanche",
      "lastName": "Hurst",
      "company": "MITROC",
      "email": "blanche.hurst@mitroc.co.uk",
      "phone": "+8 (826) 500-2161",
      "address": "752 Miami Court, Balm, New Jersey, 1019",
      "about": "Minim enim cillum sint culpa enim mollit minim. Quis consequat eu laborum eu deserunt duis nulla ex. Labore irure aliquip et ut nulla mollit. Minim excepteur sint consequat fugiat nisi fugiat enim non ea eu ut minim. Et in cupidatat eiusmod qui elit duis nisi qui quis voluptate non non incididunt consequat. Culpa tempor cillum voluptate dolor est amet culpa sint ea.",
      "tags": [
        "id",
        "minim"
      ]
    },
    {
      "id": 5,
      "isActive": true,
      "balance": "3475.75",
      "avatar": "https://images.unsplash.com/profile-1509140709644-5b9d6cd408f9?dpr=2&auto=format&fit=crop&w=64&h=64&q=60&crop=faces&bg=fff",
      "birthday": 493758728,
      "accessLevel": "user",
      "firstName": "Marissa",
      "lastName": "Cantu",
      "company": "BOILCAT",
      "email": "marissa.cantu@boilcat.info",
      "phone": "+1 (836) 533-3955",
      "address": "686 Bartlett Street, Holcombe, North Dakota, 4043",
      "about": "Sint magna incididunt ex ut officia et qui dolore esse veniam dolore culpa laborum. Ex ad amet sit est enim ad cillum. Sint cillum fugiat nostrud reprehenderit incididunt esse aliqua quis incididunt aute exercitation anim qui adipisicing. Aliquip sint deserunt excepteur do nulla laboris ut. Reprehenderit ipsum ad duis laborum veniam sit velit adipisicing.",
      "tags": [
        "ullamco",
        "tempor",
        "nulla",
        "et"
      ]
    },
    {
      "id": 6,
      "isActive": true,
      "balance": "2805.72",
      "avatar": "https://images.unsplash.com/profile-1461964676603-6c67f19a31d5?dpr=2&auto=format&fit=crop&w=64&h=64&q=60&crop=faces&bg=fff",
      "birthday": 515443170,
      "accessLevel": "guest",
      "firstName": "Miriam",
      "lastName": "Peters",
      "company": "GYNK",
      "email": "miriam.peters@gynk.name",
      "phone": "+1 (916) 483-2713",
      "address": "309 Colonial Road, Manitou, Ohio, 3725",
      "about": "Nisi cillum nisi adipisicing dolore incididunt voluptate irure excepteur velit exercitation reprehenderit nulla ad. Aliqua nostrud eiusmod est consectetur. Sit sunt ullamco nisi aliquip duis ullamco adipisicing nostrud voluptate aute officia proident sit. Eiusmod sunt commodo in tempor dolor fugiat magna ea est consequat. Nisi dolor duis tempor occaecat consectetur. Aliqua magna irure irure sit fugiat excepteur.",
      "tags": [
        "laboris"
      ]
    },
    {
      "id": 7,
      "isActive": false,
      "balance": "2564.31",
      "avatar": "https://images.unsplash.com/profile-1526213766595-e7faa4e785dd?dpr=2&auto=format&fit=crop&w=64&h=64&q=60&crop=faces&bg=fff",
      "birthday": 443413681,
      "accessLevel": "user",
      "firstName": "Stevens",
      "lastName": "Cummings",
      "company": "PHARMACON",
      "email": "stevens.cummings@pharmacon.biz",
      "phone": "+5 (900) 455-2829",
      "address": "221 Himrod Street, Trail, Rhode Island, 8855",
      "about": "Eu pariatur sint reprehenderit id sunt officia sit ex. Dolor ex nulla excepteur ex amet consectetur commodo ipsum cillum mollit. Ullamco ipsum do aliqua enim consectetur laboris do tempor esse cupidatat.",
      "tags": [
        "adipisicing",
        "nulla",
        "et"
      ]
    },
    {
      "id": 8,
      "isActive": true,
      "balance": "3557.49",
      "avatar": "https://images.unsplash.com/profile-1497976599957-aaf7ddcc5bbb?dpr=2&auto=format&fit=crop&w=64&h=64&q=60&crop=faces&bg=fff",
      "birthday": 456943370,
      "accessLevel": "admin",
      "firstName": "Isabel",
      "lastName": "Saunders",
      "company": "SYNTAC",
      "email": "isabel.saunders@syntac.tv",
      "phone": "+9 (808) 491-2087",
      "address": "428 Montague Street, Johnsonburg, Nebraska, 9116",
      "about": "Officia ea ea sint esse elit duis ipsum ex eiusmod est veniam cillum Lorem. Officia anim in et sunt consectetur occaecat. Duis sint tempor sunt eiusmod. Nulla elit eiusmod qui labore duis consectetur dolore occaecat fugiat laboris fugiat. Laborum eiusmod ullamco occaecat esse in sint esse culpa sunt qui.",
      "tags": [
        "aliqua",
        "duis",
        "incididunt",
        "sit",
        "proident"
      ]
    },
    {
      "id": 9,
      "isActive": false,
      "balance": "3314.51",
      "avatar": "https://images.unsplash.com/profile-1515313254617-b976088eff6a?dpr=2&auto=format&fit=crop&w=64&h=64&q=60&crop=faces&bg=fff",
      "birthday": 432590853,
      "accessLevel": "guest",
      "firstName": "Mullins",
      "lastName": "Wong",
      "company": "ISODRIVE",
      "email": "mullins.wong@isodrive.com",
      "phone": "+4 (907) 582-3553",
      "address": "393 Taylor Street, Remington, Tennessee, 1837",
      "about": "Ipsum qui pariatur mollit duis id ipsum irure et fugiat ex duis minim ea. Nostrud ea duis irure dolore et laboris aliquip proident enim sunt pariatur consequat aliquip. Laborum ut consectetur non ex occaecat duis ad. Duis duis ut laboris ea labore laboris anim minim elit eiusmod. Excepteur ex non fugiat ea labore in veniam ad Lorem consectetur veniam. Officia eiusmod nulla laborum laborum laborum adipisicing sunt.",
      "tags": [
        "do",
        "ipsum",
        "non",
        "tempor",
        "duis"
      ]
    },
    {
      "id": 10,
      "isActive": true,
      "balance": "2312.92",
      "avatar": "https://images.unsplash.com/profile-1470064558834-c0aa2c4a34c7?dpr=2&auto=format&fit=crop&w=64&h=64&q=60&crop=faces&bg=fff",
      "birthday": 213809098,
      "accessLevel": "guest",
      "firstName": "Ruby",
      "lastName": "Rowe",
      "company": "SLOGANAUT",
      "email": "ruby.rowe@sloganaut.org",
      "phone": "+4 (939) 471-3046",
      "address": "135 Louis Place, Roderfield, Connecticut, 5009",
      "about": "Cillum et consequat magna non consectetur. Incididunt fugiat dolore ad nostrud mollit excepteur labore voluptate deserunt deserunt sit exercitation sit aute. Esse eu cupidatat laborum aliqua aute culpa veniam exercitation tempor minim reprehenderit Lorem non. Nisi do Lorem aliqua ullamco amet cillum enim incididunt laboris labore qui duis duis magna.",
      "tags": [
        "officia",
        "tempor",
        "aute",
        "consequat"
      ]
    },
    {
      "id": 11,
      "isActive": true,
      "balance": "1281.07",
      "avatar": "https://images.unsplash.com/profile-1508107410047-a34950174b6b?dpr=2&auto=format&fit=crop&w=64&h=64&q=60&crop=faces&bg=fff",
      "birthday": 178592550,
      "accessLevel": "user",
      "firstName": "Rachael",
      "lastName": "Hernandez",
      "company": "MUSAPHICS",
      "email": "rachael.hernandez@musaphics.me",
      "phone": "+4 (894) 412-2574",
      "address": "272 Carroll Street, Ticonderoga, Northern Mariana Islands, 5258",
      "about": "Do sint in enim aliquip commodo velit dolore anim sint consectetur nisi. Consectetur minim ea veniam exercitation. Cillum proident irure sint excepteur cupidatat voluptate esse officia. Sunt ex nostrud eu dolor occaecat quis quis cillum nisi laboris cillum excepteur. Do enim magna proident dolore officia voluptate laboris excepteur quis pariatur incididunt. Dolore elit irure velit est anim tempor deserunt excepteur amet amet. Consequat Lorem culpa minim cupidatat adipisicing mollit pariatur occaecat qui eiusmod irure cupidatat ex.",
      "tags": [
        "incididunt",
        "nostrud",
        "Lorem",
        "magna"
      ]
    },
    {
      "id": 12,
      "isActive": true,
      "balance": "3657.23",
      "avatar": "https://images.unsplash.com/profile-1512108312305-2298357e9cb2?dpr=2&auto=format&fit=crop&w=64&h=64&q=60&crop=faces&bg=fff8",
      "birthday": 469693757,
      "accessLevel": "admin",
      "firstName": "Atkinson",
      "lastName": "Hinton",
      "company": "ZORROMOP",
      "email": "atkinson.hinton@zorromop.biz",
      "phone": "+6 (983) 541-2941",
      "address": "777 Robert Street, Movico, New Mexico, 8129",
      "about": "Pariatur aliqua reprehenderit duis sunt ex consequat dolore sint consequat. Elit nostrud cupidatat proident commodo commodo officia nisi duis cupidatat sunt enim sint elit. Ut laborum aliqua est officia velit ut ad incididunt magna ex ullamco ad. Non deserunt quis ullamco non culpa ex magna aliqua nulla aliquip. Ea enim cupidatat exercitation proident ea do aliquip pariatur anim aliqua qui. Labore magna dolor eu voluptate.",
      "tags": [
        "nostrud",
        "cupidatat",
        "et"
      ]
    },
    {
      "id": 13,
      "isActive": true,
      "balance": "2044.41",
      "avatar": "https://images.unsplash.com/profile-fb-1496220332-3e4fb77b3629.jpg?dpr=2&auto=format&fit=crop&w=64&h=64&q=60&crop=faces&bg=fff",
      "birthday": 410244686,
      "accessLevel": "guest",
      "firstName": "Lakeisha",
      "lastName": "Larson",
      "company": "ECLIPSENT",
      "email": "lakeisha.larson@eclipsent.io",
      "phone": "+9 (985) 512-3381",
      "address": "615 Cypress Avenue, Macdona, West Virginia, 9889",
      "about": "Eu minim quis aliquip nostrud do labore ex ex ullamco aliqua culpa labore aute. Commodo aliquip amet aliqua voluptate minim aliquip labore eu. Fugiat sint voluptate pariatur amet anim veniam Lorem culpa adipisicing sint voluptate do sit.",
      "tags": [
        "ipsum",
        "do",
        "mollit",
        "id",
        "consequat"
      ]
    },
    {
      "id": 14,
      "isActive": false,
      "balance": "3406.65",
      "avatar": "https://images.unsplash.com/profile-1449519120639-e05bd9de6562?dpr=2&auto=format&fit=crop&w=64&h=64&q=60&crop=faces&bg=fff8",
      "birthday": 348101382,
      "accessLevel": "guest",
      "firstName": "Taylor",
      "lastName": "Hooper",
      "company": "VANTAGE",
      "email": "taylor.hooper@vantage.us",
      "phone": "+3 (916) 521-2466",
      "address": "907 Seeley Street, Muse, Nevada, 9252",
      "about": "Aute labore culpa mollit voluptate deserunt in sint fugiat fugiat excepteur dolore laboris aliquip enim. Sunt culpa aliqua consectetur velit laboris quis sunt tempor laboris enim et tempor. Enim eiusmod officia veniam id quis ut ipsum. Et non adipisicing ut ut consequat commodo consectetur duis laboris incididunt sunt. Qui aliqua elit id velit cupidatat non do officia tempor et officia nulla culpa. Fugiat dolore adipisicing occaecat quis.",
      "tags": [
        "deserunt",
        "nulla",
        "cupidatat"
      ]
    }
  ]
}